{
  "scrapers": {
    "fileSystem": {
      "movies": [],
      "series": ["/home/tamim/Media/cut-the-cord/tv"],
      "fileServerUrl": "http://192.168.0.100:5000",
      "rootMediaDirectory": "/home/tamim/Media/cut-the-cord"
    },
    "h5ai": {
      "movies": [
        "http://server2.ftpbd.net/FTP-2/English%20Movies/",
        "http://server2.ftpbd.net/FTP-2/English%20Movies/Dual-Audio/"
      ],
      "series": [
        "http://server4.ftpbd.net/FTP-4/English%20%26%20Foreign%20TV%20Series",
        "http://server3.ftpbd.net/FTP-3/Hindi%20Movies/Hindi%20Tv%20Series",
        "http://server3.ftpbd.net/FTP-3/Bangla%20Collection/BANGLA/Web%20Series/",
        "http://server5.ftpbd.net/FTP-5/Anime%20&%20Cartoon%20TV%20Series/"
      ]
    },
    "nginx": {
      "movies": [
        "https://cdn.naturalbd.com:443/hollywood/",
        "https://cdn.naturalbd.com:443/bollywood/",
        "https://cdn.naturalbd.com:443/tamil/",
        "https://cdn.naturalbd.com:443/animated/",
        "https://cdn.naturalbd.com:443/foreign/"
      ],
      "series": ["https://cdn.naturalbd.com:443/tv-series/"]
    }
  },
  "env": {
  	"envFile": "/home/tamim/.local/share/goribernetflix/primary.env"
  }
}
